[
	{
		"id": "amarasekaraComparisonKombuchaSCOBY2020",
		"type": "article-journal",
		"abstract": "Kombucha SCOBY pellicle formed as a waste product in the kombucha tea fermentation industry can be used as a potential source for bacterial cellulose. We have compared four simple, scalable purification methods for the purification of this jelly like cellulosic matrix containing bacteria, yeast cells, proteins and polyphenols as impurities. The method using two successive 1.0 M NaOH washings at 90 °C, followed by the treatment with 1.5% (w/w) aq. NaOCl for 2 h, was the most effective method and gave the purified cellulose sample with the highest leucometer whiteness value of 81.4 ± 4.8. The purified cellulose samples were analyzed using FT-IR, TGA, SEM, EDX, X-ray and water absorption at room temperature.",
		"container-title": "SN Applied Sciences",
		"DOI": "10.1007/s42452-020-1982-2",
		"ISSN": "2523-3971",
		"issue": "2",
		"journalAbbreviation": "SN Appl. Sci.",
		"language": "en",
		"page": "240",
		"source": "Springer Link",
		"title": "A comparison of kombucha SCOBY bacterial cellulose purification methods",
		"URL": "https://doi.org/10.1007/s42452-020-1982-2",
		"volume": "2",
		"author": [
			{
				"family": "Amarasekara",
				"given": "Ananda S."
			},
			{
				"family": "Wang",
				"given": "Deping"
			},
			{
				"family": "Grady",
				"given": "Tony L."
			}
		],
		"accessed": {
			"date-parts": [
				[
					"2022",
					7,
					8
				]
			]
		},
		"issued": {
			"date-parts": [
				[
					"2020",
					1,
					20
				]
			]
		}
	},
	{
		"id": "martinezlealReviewHealthBenefits2018",
		"type": "article-journal",
		"container-title": "CyTA - Journal of Food",
		"DOI": "10.1080/19476337.2017.1410499",
		"ISSN": "1947-6337, 1947-6345",
		"issue": "1",
		"journalAbbreviation": "CyTA - Journal of Food",
		"language": "en",
		"page": "390-399",
		"source": "DOI.org (Crossref)",
		"title": "A review on health benefits of kombucha nutritional compounds and metabolites",
		"URL": "https://www.tandfonline.com/doi/full/10.1080/19476337.2017.1410499",
		"volume": "16",
		"author": [
			{
				"family": "Martínez Leal",
				"given": "Jessica"
			},
			{
				"family": "Valenzuela Suárez",
				"given": "Lucía"
			},
			{
				"family": "Jayabalan",
				"given": "Rasu"
			},
			{
				"family": "Huerta Oros",
				"given": "Joselina"
			},
			{
				"family": "Escalante-Aburto",
				"given": "Anayansi"
			}
		],
		"accessed": {
			"date-parts": [
				[
					"2022",
					2,
					14
				]
			]
		},
		"issued": {
			"date-parts": [
				[
					"2018",
					1
				]
			]
		}
	},
	{
		"id": "jayabalanReviewKombuchaTea2014",
		"type": "article-journal",
		"abstract": "Fermentation of sugared tea with a symbiotic culture of acetic acid bacteria and yeast (tea fungus) yields kombucha tea which is consumed worldwide for its refreshing and beneficial properties on human health. Important progress has been made in the past decade concerning research findings on kombucha tea and reports claiming that drinking kombucha can prevent various types of cancer and cardiovascular diseases, promote liver functions, and stimulate the immune system. Considering the widespread reports on kombucha, we recognized the need to review and update the research conducted in relation to kombucha tea, its products and tea fungus. Existing reports have suggested that the protective effects of kombucha tea are as good as those of black tea, however, more studies on kombucha tea and its composition are needed before final conclusions can be made.",
		"container-title": "Comprehensive Reviews in Food Science and Food Safety",
		"DOI": "10.1111/1541-4337.12073",
		"ISSN": "1541-4337",
		"issue": "4",
		"language": "en",
		"note": "_eprint: https://onlinelibrary.wiley.com/doi/pdf/10.1111/1541-4337.12073",
		"page": "538-550",
		"source": "Wiley Online Library",
		"title": "A Review on Kombucha Tea—Microbiology, Composition, Fermentation, Beneficial Effects, Toxicity, and Tea Fungus",
		"URL": "https://onlinelibrary.wiley.com/doi/abs/10.1111/1541-4337.12073",
		"volume": "13",
		"author": [
			{
				"family": "Jayabalan",
				"given": "Rasu"
			},
			{
				"family": "Malbaša",
				"given": "Radomir V."
			},
			{
				"family": "Lončar",
				"given": "Eva S."
			},
			{
				"family": "Vitas",
				"given": "Jasmina S."
			},
			{
				"family": "Sathishkumar",
				"given": "Muthuswamy"
			}
		],
		"accessed": {
			"date-parts": [
				[
					"2022",
					5,
					17
				]
			]
		},
		"issued": {
			"date-parts": [
				[
					"2014"
				]
			]
		}
	},
	{
		"id": "BestPracticesKombucha",
		"type": "post-weblog",
		"language": "en-US",
		"title": "Best Practices – Kombucha Brewers International",
		"URL": "https://kombuchabrewers.org/resources/best-practices/",
		"accessed": {
			"date-parts": [
				[
					"2018",
					12,
					14
				]
			]
		}
	},
	{
		"id": "BiomaterialsWhatSCOBY2021",
		"type": "webpage",
		"abstract": "SCOBY stands for \"symbiotic culture of bacteria an",
		"container-title": "Environmental Center",
		"language": "en",
		"title": "Biomaterials: What is SCOBY Leather?",
		"title-short": "Biomaterials",
		"URL": "https://www.colorado.edu/ecenter/2021/11/04/biomaterials-what-scoby-leather",
		"accessed": {
			"date-parts": [
				[
					"2022",
					7,
					8
				]
			]
		},
		"issued": {
			"date-parts": [
				[
					"2021",
					11,
					4
				]
			]
		}
	},
	{
		"id": "zhangChangesFunctionalComponents2022",
		"type": "article-journal",
		"abstract": "Kombucha, fermented via symbiotic colony of bacteria and yeast (SCOBY) with black tea, is applied as a nova microbial method for processing traditional Chinese medicine (TCM). In this study, Lycium barbarum was used as the substrate combined with Kombucha SCOBY to enhance its antioxidant activities and flavor composition. The result indicated that the antioxidant activities of L. barbarum fermentation broth (LBF) was increased and 16.51% higher compared to the infusion. Besides, the inhibition zone of LBF on the 10th day against Escherichia coli and Staphylococcus aureus reached the maximum of 18.80 and 21.85 mm. Three typical L. barbarum polysaccharides, including LBP1, LBP2, and LBP3, were extracted and their compositions were identified. Among them, the DPPH scavenging rate and reducing power of LBP2 were 67.36% and 0.612 which were both higher than others. Furthermore, SOD enzyme and cellulase activity of LBF on 10th day were improved by 92.41% and 2.27 times, respectively. Thirty-one aroma compounds were determined in Lycium barbarum Kombucha ferment via GC–MS. The strongest flavor of the LBF was sourness while the weakest flavor was saltiness which was analyzed through the electronic tongue. Our research provides a theoretical basis for the development of functional L. barbarum Kombucha product and explores the application of Kombucha SCOBY in processing TCM. Novelty impact statement: The fermentation of Kombucha combined with Lycium barbarum with respect to antioxidant and bacteriostatic activities was enhanced prominently. L. barbarum polysaccharides, including LBP1, LBP2, and LBP3, were first identified with nine monosaccharides closely related to biological activity. Aroma compounds of organic acids with sourness flavor made a biggest contribution to L. barbarum Kombucha ferment. © 2022 Wiley Periodicals LLC.",
		"container-title": "Journal of Food Processing and Preservation",
		"DOI": "10.1111/jfpp.16758",
		"title": "Changes in functional components and biological activity of Lycium barbarum after fermentation with Kombucha SCOBY",
		"URL": "https://www.scopus.com/inward/record.uri?eid=2-s2.0-85130869849&doi=10.1111%2fjfpp.16758&partnerID=40&md5=0b786ac1c81e2301112f14f299e628e5",
		"author": [
			{
				"family": "Zhang",
				"given": "S."
			},
			{
				"family": "Tang",
				"given": "Y."
			},
			{
				"family": "Chen",
				"given": "J."
			}
		],
		"issued": {
			"date-parts": [
				[
					"2022"
				]
			]
		}
	},
	{
		"id": "schwenkCulturedFoodHealth2015",
		"type": "book",
		"abstract": "\"Donna Schwenk's first book, Cultured Food for Life (2013), told the amazing story of how she used the probiotic power of fermented foods to heal herself and her family from serious illness-- and it introduced readers to the basics of preparing and using these health-giving foods. Dr. Christiane Northrup called it \"just what the doctor should be ordering!\" Now, Donna returns to help us take the next steps in transforming our kitchens and our health. Cultured Food for Health explores the science behind the benefits of cultured foods and shows how incorporating \"The Trilogy\"--Kefir, kombucha, and cultured vegetables--into our diet creates more powerful healing effects than any one of these foods alone, as the different types of probiotic bacteria work together to create a healthy gut and a truly healthy life. Donna explains how cultured foods can be used to address specific ailments--from IBS and diabetes to allergies, colds, and flu--and teaches us, step by step, how to prepare these probiotic foods and easily incorporate them into a daily routine. In a positive and welcoming voice, she answers the sorts of questions a cultured-food novice is likely to have (yes, it's really all right to let vegetables ferment on the counter for three days!) and offers troubleshooting tips and clear instructions to support even the most uncertain home cook. By sharing her own story as well as real-life stories from members of her online community, she takes the fear out of fermentation so that all of us can experience the energy, well-being, and joy available to us when our bodies are working the way they're meant to. Includes a vivid color insert with images for guidance and inspiration\"--, Includes bibliographical references and index.",
		"call-number": "RM666.P835 S392 2015",
		"edition": "1st edition.",
		"event-place": "Carlsbad, California",
		"ISBN": "978-1-4019-4783-5",
		"language": "eng",
		"publisher": "Hay House, Inc",
		"publisher-place": "Carlsbad, California",
		"source": "primo.lclark.edu",
		"title": "Cultured food for health: a guide to healing yourself with probiotic foods kefir * kombucha * cultured vegetables",
		"title-short": "Cultured food for health",
		"author": [
			{
				"family": "Schwenk",
				"given": "Donna"
			}
		],
		"issued": {
			"date-parts": [
				[
					"2015"
				]
			]
		}
	},
	{
		"id": "laavanyaCurrentChallengesApplications2021",
		"type": "article-journal",
		"abstract": "SCOBY, a biofilm of cellulose containing the symbiotic culture of bacteria and yeast, is a by-product of Kombucha tea fermentation. Several studies on the kombucha SCOBY are being carried out to exploit all the possibilities of dealing with this cellulose as a suitable raw material in fields like food technology, biomaterial preparation, fashion and textile industries, environmental biotechnology, and so on. This review focusses on elaborating about the microbial ecology present in the kombucha tea fermentation, the production of the extracellular polysaccharide (cellulose) by the bacteria, the cultivation methods of SCOBY, composition, structure, and characteristics of the cellulose biofilms obtained. Genera of bacteria and yeast majorly found in the SCOBY are Gluconobacter, Acetobacter, Zygosaccharomyces, Saccharomyces, and Schizosaccharomyces. Present in a symbiotic relationship in the kombucha tea, these microbes help in producing cellulose fibrils extracellularly forming a biofilm at the air-liquid interface. An overview of the favorable conditions for SCOBY production, prevention of contamination and purification of the cellulose sheets are also discussed and then its suitability for applications in different fields are assessed. The fermentation is mostly done at room temperature and the biofilm is harvested within 30 days according to the required shape and size. Advantages like flexible physical, chemical and biological properties, the requirement of minimum media components, eco-friendly and cost efficiency of this biofilm leading to its utilization in many upcoming fields are elucidated. Optimization of process variables is essential for scale-up to facilitate cost-effective production of SCOBY cellulose for exploring its wide potential in sustainable applications.",
		"container-title": "Journal of Cleaner Production",
		"DOI": "10.1016/j.jclepro.2021.126454",
		"ISSN": "0959-6526",
		"journalAbbreviation": "Journal of Cleaner Production",
		"language": "en",
		"page": "126454",
		"source": "ScienceDirect",
		"title": "Current challenges, applications and future perspectives of SCOBY cellulose of Kombucha fermentation",
		"URL": "https://www.sciencedirect.com/science/article/pii/S0959652621006740",
		"volume": "295",
		"author": [
			{
				"family": "Laavanya",
				"given": "D."
			},
			{
				"family": "Shirkole",
				"given": "Shivanand"
			},
			{
				"family": "Balasubramanian",
				"given": "P."
			}
		],
		"accessed": {
			"date-parts": [
				[
					"2022",
					7,
					8
				]
			]
		},
		"issued": {
			"date-parts": [
				[
					"2021",
					5,
					1
				]
			]
		}
	},
	{
		"id": "ivoryDeterminationEthanolConcentration2021",
		"type": "article-journal",
		"abstract": "Kombucha is a fermented, lightly effervescent sweetened black or green tea drink. It is marketed as a functional beverage based on its proposed health benefits. Kombucha is produced by fermenting tea using a \"symbiotic colony of bacteria and yeast\" (SCOBY). Kombucha is marketed as a non-alcoholic beverage, however due to the production process employed, there is a high possibility that the Kombucha products will contain low levels of ethanol. Kombucha is sold in a raw and unpasteurized form and, if kept at temperatures above 4 °C, the possibility exists that it will continue to ferment, producing ethanol. This possibility of continued fermentation may lead to an increase in ethanol content from levels below 0.5%ABV at time of production to higher levels at time of consumption. Thus, there is a potential for levels rising to greater than 0.5%ABV, the threshold for certification as a non-alcoholic beverage. It is essential that Kombucha manufacturers have the capacity to accurately and quickly test for ethanol in their products. The Ethanol Assay Kit is an enzymatic test kit developed by Megazyme for the determination of ethanol in a variety of samples. The kit has been validated in a single laboratory for use with Kombucha fermented drinks, fruit juices, and low-alcohol beer samples. The commercially available Ethanol Assay Kit (Megazyme catalogue no. K-ETOH) contains all components required for the analysis. Quantification is based on the oxidation of ethanol to acetaldehyde by alcohol dehydrogenase and further oxidation of acetaldehyde by acetaldehyde dehydrogenase with conversion of NAD+ to NADH. The single laboratory validation (SLV) outlined in this document was performed on a sample set of eight different commercial Kombucha products purchased in Ireland, a set of five Cerilliant aqueous ethanol solutions, two BCR low-alcohol beer reference materials, two alcohol-free beer samples, and two fruit juice samples against SMPR 2016.001 (1). Parameters examined during the validation included Working range, Selectivity, Limit of Detection (LOD), Limit of Quantification (LOQ), Trueness (bias), Precision (reproducibility and repeatability), Robustness, and Stability. The Ethanol Assay is a robust, quick and easy method for the measurement of ethanol in Kombucha. Our data suggests this method is also reliable for similar matrices, such as low-alcohol beer and fruit juice. The assay meets all requirements set out in in AOAC SMPR 2016.001. © AOAC INTERNATIONAL 2020.",
		"container-title": "Journal of AOAC International",
		"DOI": "10.1093/jaoacint/qsaa122",
		"issue": "2",
		"page": "422-430",
		"title": "Determination of Ethanol Concentration in Kombucha Beverages: Single-Laboratory Validation of an Enzymatic Method, First Action Method 2019.08",
		"URL": "https://www.scopus.com/inward/record.uri?eid=2-s2.0-85102699748&doi=10.1093%2fjaoacint%2fqsaa122&partnerID=40&md5=3f78b72e442d6eaa773f44d2cead34b7",
		"volume": "104",
		"author": [
			{
				"family": "Ivory",
				"given": "R."
			},
			{
				"family": "Delaney",
				"given": "E."
			},
			{
				"family": "Mangan",
				"given": "D."
			},
			{
				"family": "McCleary",
				"given": "B.V."
			}
		],
		"issued": {
			"date-parts": [
				[
					"2021"
				]
			]
		}
	},
	{
		"id": "chanDeterminationEthanolContent2021",
		"type": "article-journal",
		"abstract": "BACKGROUND: Kombucha is a fermented beverage made with tea, sugar, and a symbiotic colony of bacteria and yeast that is usually marketed as a non-alcoholic beverage. Products must contain <0.5% and <1.1% alcohol by volume in the United States and Canada respectively to be classified as non-alcoholic products. Prior studies have found that Kombucha beverages can become very acidic and may contain levels of alcohol above 1% which can be a potential health risk to children and the developing fetus during pregnancy. OBJECTIVE: Given the public safety concerns and legal requirements associated with the level of alcohol within Kombucha beverages, there is a need for accurate and reliable methods. Herein we describe the validation of a sensitive, rapid, and simple Headspace Gas Chromatographic method with mass spectrometric detection for determining ethanol in Kombucha. METHODS: Method performance characteristics measured included linearity, accuracy, precision, limit of detection (LOD), and limit of quantification (LOQ) as per AOAC International guideline Appendix K Part 1. Performance was evaluated against the AOAC Standard Method Performance Requirements 2016.001 for determination of ethanol in Kombucha. RESULTS: The linear dynamic range for this method was confirmed over the range of 0.025 to 2.47% ABV. The LOD and LOQ were determined to be 0.0002% and 0.002% ABV, respectively. With a spike recovery of 102% for accuracy and precision of RSDr ≤ 4% the method met the SMPR requirements within the analytical range. CONCLUSIONS: The results of this validation study demonstrated the method is fit for the purpose of quantifying ethanol in Kombucha and is suitable for rapid and easy integration by laboratories to ensure that regulatory requirements are met. © AOAC INTERNATIONAL 2020.",
		"container-title": "Journal of AOAC International",
		"DOI": "10.1093/jaoacint/qsaa094",
		"issue": "1",
		"page": "122-128",
		"title": "Determination of Ethanol Content in Kombucha Using Headspace Gas Chromatography with Mass Spectrometry Detection: Single-Laboratory Validation",
		"URL": "https://www.scopus.com/inward/record.uri?eid=2-s2.0-85103473456&doi=10.1093%2fjaoacint%2fqsaa094&partnerID=40&md5=0feb4aa1c8eef9cbb7634a8637e3922d",
		"volume": "104",
		"author": [
			{
				"family": "Chan",
				"given": "M."
			},
			{
				"family": "Sy",
				"given": "H."
			},
			{
				"family": "Finley",
				"given": "J."
			},
			{
				"family": "Robertson",
				"given": "J."
			},
			{
				"family": "Brown",
				"given": "P.N."
			}
		],
		"issued": {
			"date-parts": [
				[
					"2021"
				]
			]
		}
	},
	{
		"id": "dinataleEngineeredBacterialCellulose2022",
		"type": "article-journal",
		"abstract": "Bacterial cellulose (BC) is a highly pure form of cellulose produced by bacteria, which possesses numerous advantages such as good mechanical properties, high chemical flexibility, and the ability to assemble in nanostructures. Thanks to these features, it achieved a key role in the biomedical field and in drug delivery applications. BC showed its ability to modulate the release of several drugs and biomolecules to the skin, thus improving their clinical outcomes. This work displays the loading of a 3D BC nanonetwork with an innovative drug delivery nanoemulsion system. BC was optimized by static culture of SCOBY (symbiotic colony of bacteria and yeast) and characterized by morphological and ultrastructural analyses, which indicate a cellulose fiber diameter range of 30–50 nm. BC layers were then incubated at different time points with a nanocarrier based on a secondary nanoemulsion (SNE) previously loaded with a well-known antioxidant and anti-inflammatory agent, namely, coenzyme-Q10 (Co-Q10). Incubation of Co-Q10–SNE in the BC nanonetwork and its release were analyzed by fluorescence spectroscopy. Copyright © 2022 Di Natale, De Gregorio, Lagreca, Mauro, Corrado, Vecchione and Netti.",
		"container-title": "Frontiers in Bioengineering and Biotechnology",
		"DOI": "10.3389/fbioe.2022.851893",
		"title": "Engineered Bacterial Cellulose Nanostructured Matrix for Incubation and Release of Drug-Loaded Oil in Water Nanoemulsion",
		"URL": "https://www.scopus.com/inward/record.uri?eid=2-s2.0-85127324111&doi=10.3389%2ffbioe.2022.851893&partnerID=40&md5=889307283a4d6cf1cbcc54f3dfb48394",
		"volume": "10",
		"author": [
			{
				"family": "Di Natale",
				"given": "C."
			},
			{
				"family": "De Gregorio",
				"given": "V."
			},
			{
				"family": "Lagreca",
				"given": "E."
			},
			{
				"family": "Mauro",
				"given": "F."
			},
			{
				"family": "Corrado",
				"given": "B."
			},
			{
				"family": "Vecchione",
				"given": "R."
			},
			{
				"family": "Netti",
				"given": "P.A."
			}
		],
		"issued": {
			"date-parts": [
				[
					"2022"
				]
			]
		}
	},
	{
		"id": "elabdFermentationModeEmploi2017",
		"type": "book",
		"abstract": "Plus de 80 recettes maison ??tape par ??tape! Tout ce que vous devez savoir sur la fermentation maison. S'adresse aussi bien aux experts qu'aux d??butants. D??COUVREZ : - tous les bienfaits des ferments et des pro-biotiques pour votre sant??;- l'??quipement requis et les conditions d'entreposage pour r??ussir vos fermentations maison;- plus de 80 recettes simples expliqu??es ??tape par ??tape : k??fir, kombucha, yogourt, condiments, l??gumes marin??s, c??r??ales germ??es, pains, vins, vinaigres, etc. -- [Renaud-Bray].",
		"ISBN": "978-2-89523-978-9",
		"language": "French",
		"note": "OCLC: 973801350",
		"number-of-pages": "224",
		"publisher": "Modus Vivendi",
		"source": "Open WorldCat",
		"title": "Fermentation: mode d'emploi",
		"title-short": "Fermentation",
		"author": [
			{
				"family": "Elabd",
				"given": "Adam"
			}
		],
		"issued": {
			"date-parts": [
				[
					"2017"
				]
			]
		}
	},
	{
		"id": "nirmalFormationDialysisfreeKombuchabased2020",
		"type": "article-journal",
		"abstract": "The preparation of dialysis-free bacterial nanocrystalline cellulose (BNCC) combined with a suitable polymer to form a robust conducting material remains a challenge. In this work, we developed a polypyrrole@BNCC/PVA nanocomposite that avoids the time-consuming dialysis step and which exhibits bulk electrical conductivity. The nanocellulose (NC) was derived from bacterial cellulose (BC) that was grown from a symbiotic colony of bacteria and yeast (SCOBY) starting from Kombucha tea, and then subjected to sulfuric acid hydrolysis that led to isolable bacterial nanocrystalline cellulose (BNCC) product and subsequently utilized as a stabilizer and support. Pyrrole monomer was reacted with FeCl3·6H2O as a polymerization initiator to form polypyrrole (PPy) and combined with BNCC it produced PPy@BNCC nanocomposite. We found PPy to BNCC in a 1 : 1 ratio provided the best suspension of the components and formed a well dispersed homogeneous network. The PPy@BNCC nanocomposite was then suspended in polyvinyl alcohol (PVA), that facilitated the construction of a continuous PPy@BNCC/PVA conductive network in the matrix. We designed an in-house electrical measurement apparatus and developed a method that recorded bulk resistance. The results obtained from the measurements of the electrical properties of the PPy@BNCC/PVA composite prepared dialysis-free were then compared with (i) a dialyzed sample of similar composition, and (ii) a traditional four-point probe measurement. The PPy@BNCC/PVA dialysis-free sample showed a higher conductivity compared to the dialyzed composite at 4.27 × 10-1 and 3.41 × 10-1 S m-1, respectively, and both values closely matched the traditional four-point probe measurement. This journal is © The Royal Society of Chemistry.",
		"container-title": "RSC Advances",
		"DOI": "10.1039/d0ra04649c",
		"issue": "46",
		"page": "27585-27597",
		"title": "Formation of dialysis-free Kombucha-based bacterial nanocellulose embedded in a polypyrrole/PVA composite for bulk conductivity measurements",
		"URL": "https://www.scopus.com/inward/record.uri?eid=2-s2.0-85089304364&doi=10.1039%2fd0ra04649c&partnerID=40&md5=f78a6f23ced141208570fd7a5333e1e5",
		"volume": "10",
		"author": [
			{
				"family": "Nirmal",
				"given": "N."
			},
			{
				"family": "Pillay",
				"given": "M.N."
			},
			{
				"family": "Mariola",
				"given": "M."
			},
			{
				"family": "Petruccione",
				"given": "F."
			},
			{
				"family": "Van Zyl",
				"given": "W.E."
			}
		],
		"issued": {
			"date-parts": [
				[
					"2020"
				]
			]
		}
	},
	{
		"id": "monitorGlobalKombuchaMarket",
		"type": "webpage",
		"abstract": "FORT WORTH, Texas, July 23, 2015 /PRNewswire/ -- According to the new Market Research Report \"Kombucha Market Research Report By Type (Bacteria, Yeast, Mold,...",
		"language": "en",
		"title": "Global Kombucha Market is Anticipated to be Worth $1.8 Billion by 2020",
		"URL": "https://www.prnewswire.com/news-releases/global-kombucha-market-is-anticipated-to-be-worth-18-billion-by-2020-518284231.html",
		"author": [
			{
				"family": "Monitor",
				"given": "MicroMarket"
			}
		],
		"accessed": {
			"date-parts": [
				[
					"2018",
					12,
					14
				]
			]
		}
	},
	{
		"id": "GTLivingFoods",
		"type": "webpage",
		"title": "GT’s Living Foods | Kombucha, Kefir, Coconut Yogurt, and More",
		"URL": "https://gtslivingfoods.com/",
		"accessed": {
			"date-parts": [
				[
					"2018",
					12,
					14
				]
			]
		}
	},
	{
		"id": "watawanaHealthWellnessSafety2015",
		"type": "article-journal",
		"abstract": "Functional foods have been identified as whole foods and fortified, enriched, or enhanced products which have a potentially beneficial effect on health when consumed as part of a varied diet on a regular basis, at effective levels. As consumer awareness on functional food escalates, the interest towards conducting scientific studies in this field has also proportionately increased. Many of the traditional food products are known to possess bioactive components, thus qualifying as functional food. Kombucha tea is produced by fermenting sugared black tea with a mixed culture of yeast and bacteria. Kombucha tea has gained immense popularity in recent times due to many associated health benefits. The therapeutic effects of this beverage are thought to be derived from the chemical composition of this beverage, mainly the polyphenols and secondary metabolites which are produced during fermentation. However, the safety aspects of the beverage also need to be taken into account when qualifying the beverage as a functional food. Nevertheless, Kombucha tea could be easily recognized as a beverage which is able to replace the consumption of carbonated beverages due to its possession of health benefits and therapeutic properties.",
		"container-title": "Journal of Chemistry",
		"DOI": "10.1155/2015/591869",
		"ISSN": "2090-9063, 2090-9071",
		"journalAbbreviation": "Journal of Chemistry",
		"language": "en",
		"page": "1-11",
		"source": "DOI.org (Crossref)",
		"title": "Health, Wellness, and Safety Aspects of the Consumption of Kombucha",
		"URL": "http://www.hindawi.com/journals/jchem/2015/591869/",
		"volume": "2015",
		"author": [
			{
				"family": "Watawana",
				"given": "Mindani I."
			},
			{
				"family": "Jayawardena",
				"given": "Nilakshi"
			},
			{
				"family": "Gunawardhana",
				"given": "Chaminie B."
			},
			{
				"family": "Waisundara",
				"given": "Viduranga Y."
			}
		],
		"accessed": {
			"date-parts": [
				[
					"2022",
					2,
					14
				]
			]
		},
		"issued": {
			"date-parts": [
				[
					"2015"
				]
			]
		}
	},
	{
		"id": "KBIVerificationProgram",
		"type": "post-weblog",
		"language": "en-US",
		"title": "KBI Verification Program – Kombucha Brewers International",
		"URL": "https://kombuchabrewers.org/industry-analysis/kbi-verification/",
		"accessed": {
			"date-parts": [
				[
					"2018",
					12,
					14
				]
			]
		}
	},
	{
		"id": "KombuchaAppliedResearch",
		"type": "motion_picture",
		"abstract": "thr34d5 medialab is launching its first Applied Research Program as a way to foster local communities with open source knowledge. discover the full project at https://thr34d5.org/karp  adrien…",
		"language": "fr",
		"source": "vimeo.com",
		"title": "kombucha · Applied Research Program, by thr34d5",
		"URL": "https://vimeo.com/322131627",
		"accessed": {
			"date-parts": [
				[
					"2021",
					1,
					30
				]
			]
		}
	},
	{
		"id": "collinsKombuchaFoodSource",
		"type": "post-weblog",
		"language": "en-US",
		"title": "Kombucha | Food Source Information",
		"URL": "http://fsi.colostate.edu/kombucha/",
		"author": [
			{
				"family": "Collins",
				"given": "Food Source Information Colorado State University Fort"
			}
		],
		"accessed": {
			"date-parts": [
				[
					"2018",
					12,
					14
				]
			]
		}
	},
	{
		"id": "KombuchaTsugiBag",
		"type": "motion_picture",
		"abstract": "WORTH presentation",
		"language": "fr",
		"source": "vimeo.com",
		"title": "Kombucha Tsugi: the bag edition",
		"title-short": "Kombucha Tsugi",
		"URL": "https://vimeo.com/373091650",
		"accessed": {
			"date-parts": [
				[
					"2021",
					1,
					30
				]
			]
		}
	},
	{
		"id": "KombuchaHealthyProbiotic2011",
		"type": "webpage",
		"abstract": "Kombucha is a healthy vegan probiotic rich beverage. Learn more about this healthful beverage option.",
		"container-title": "Clean Cuisine",
		"language": "en-US",
		"title": "Kombucha: A Healthy Probiotic Rich Vegan Drink",
		"title-short": "Kombucha",
		"URL": "https://cleancuisine.com/kombucha/",
		"accessed": {
			"date-parts": [
				[
					"2018",
					12,
					14
				]
			]
		},
		"issued": {
			"date-parts": [
				[
					"2011",
					10,
					11
				]
			]
		}
	},
	{
		"id": "mayKombuchaNovelModel2019",
		"type": "article-journal",
		"abstract": "Kombucha, a fermented tea beverage with an acidic and effervescent taste, is composed of a multispecies microbial ecosystem with complex interactions that are characterized by both cooperation and conflict. In kombucha, a complex community of bacteria and yeast initiates the fermentation of a starter tea (usually black or green tea with sugar), producing a biofilm that covers the liquid over several weeks. This happens through several fermentative phases that are characterized by cooperation and competition among the microbes within the kombucha solution. Yeast produce invertase as a public good that enables both yeast and bacteria to metabolize sugars. Bacteria produce a surface biofilm which may act as a public good providing protection from invaders, storage for resources, and greater access to oxygen for microbes embedded within it. The ethanol and acid produced during the fermentative process (by yeast and bacteria, respectively) may also help to protect the system from invasion by microbial competitors from the environment. Thus, kombucha can serve as a model system for addressing important questions about the evolution of cooperation and conflict in diverse multispecies systems. Further, it has the potential to be artificially selected to specialize it for particular human uses, including the development of antimicrobial ecosystems and novel materials. Finally, kombucha is easily-propagated, non-toxic, and inexpensive, making it an excellent system for scientific inquiry and citizen science.",
		"container-title": "PeerJ",
		"DOI": "10.7717/peerj.7565",
		"ISSN": "2167-8359",
		"journalAbbreviation": "PeerJ",
		"language": "eng",
		"note": "PMID: 31534844\nPMCID: PMC6730531",
		"page": "e7565",
		"source": "PubMed",
		"title": "Kombucha: a novel model system for cooperation and conflict in a complex multi-species microbial ecosystem",
		"title-short": "Kombucha",
		"volume": "7",
		"author": [
			{
				"family": "May",
				"given": "Alexander"
			},
			{
				"family": "Narayanan",
				"given": "Shrinath"
			},
			{
				"family": "Alcock",
				"given": "Joe"
			},
			{
				"family": "Varsani",
				"given": "Arvind"
			},
			{
				"family": "Maley",
				"given": "Carlo"
			},
			{
				"family": "Aktipis",
				"given": "Athena"
			}
		],
		"issued": {
			"date-parts": [
				[
					"2019"
				]
			]
		}
	},
	{
		"id": "mirandaKombuchaReviewSubstrates2022",
		"type": "article-journal",
		"container-title": "Journal of Food Science",
		"DOI": "10.1111/1750-3841.16029",
		"ISSN": "0022-1147, 1750-3841",
		"issue": "2",
		"journalAbbreviation": "Journal of Food Science",
		"language": "en",
		"page": "503-527",
		"source": "DOI.org (Crossref)",
		"title": "Kombucha: A review of substrates, regulations, composition, and biological properties",
		"title-short": "Kombucha",
		"URL": "https://onlinelibrary.wiley.com/doi/10.1111/1750-3841.16029",
		"volume": "87",
		"author": [
			{
				"family": "Miranda",
				"given": "Jeniffer Ferreira"
			},
			{
				"family": "Ruiz",
				"given": "Larissa Fernandes"
			},
			{
				"family": "Silva",
				"given": "Cíntia Borges"
			},
			{
				"family": "Uekane",
				"given": "Thais Matsue"
			},
			{
				"family": "Silva",
				"given": "Kelly Alencar"
			},
			{
				"family": "Gonzalez",
				"given": "Alice Gonçalves Martins"
			},
			{
				"family": "Fernandes",
				"given": "Fabrício Freitas"
			},
			{
				"family": "Lima",
				"given": "Adriene Ribeiro"
			}
		],
		"accessed": {
			"date-parts": [
				[
					"2022",
					2,
					16
				]
			]
		},
		"issued": {
			"date-parts": [
				[
					"2022",
					2
				]
			]
		}
	},
	{
		"id": "KombuchaSystematicReview",
		"type": "webpage",
		"language": "en",
		"note": "DOI: 10.1016/j.annepidem.2018.11.001",
		"title": "Kombucha: a systematic review of the empirical evidence of human health benefit",
		"title-short": "Kombucha",
		"URL": "https://reader.elsevier.com/reader/sd/pii/S1047279718307385?token=DDAEB2CA8633CDE771F1DBD37377EA2B91FAAA5CDF915943C9313BAA970DA25FEB882E371F043ECE574A12B4CE8B2DBC",
		"accessed": {
			"date-parts": [
				[
					"2018",
					12,
					14
				]
			]
		}
	},
	{
		"id": "coelhoKombuchaReview2020",
		"type": "article-journal",
		"container-title": "International Journal of Gastronomy and Food Science",
		"DOI": "10.1016/j.ijgfs.2020.100272",
		"ISSN": "1878450X",
		"journalAbbreviation": "International Journal of Gastronomy and Food Science",
		"language": "en",
		"page": "100272",
		"source": "DOI.org (Crossref)",
		"title": "Kombucha: Review",
		"title-short": "Kombucha",
		"URL": "https://linkinghub.elsevier.com/retrieve/pii/S1878450X20301499",
		"volume": "22",
		"author": [
			{
				"family": "Coelho",
				"given": "Raquel Macedo Dantas"
			},
			{
				"family": "Almeida",
				"given": "Aryelle Leite",
				"dropping-particle": "de"
			},
			{
				"family": "Amaral",
				"given": "Rafael Queiroz Gurgel",
				"dropping-particle": "do"
			},
			{
				"family": "Mota",
				"given": "Robson Nascimento",
				"dropping-particle": "da"
			},
			{
				"family": "Sousa",
				"given": "Paulo Henrique M.",
				"dropping-particle": "de"
			}
		],
		"accessed": {
			"date-parts": [
				[
					"2022",
					2,
					18
				]
			]
		},
		"issued": {
			"date-parts": [
				[
					"2020",
					12
				]
			]
		}
	},
	{
		"id": "cardosoKombuchasGreenBlack2020",
		"type": "article-journal",
		"abstract": "UPLC-QTOF-MSE phenolic profile of kombuchas produced from the fermentation of green tea or black tea at 25 °C for 10 days was investigated along with the determination of their antioxidant capacities, antibacterial and antiproliferative activities. Overall, 127 phenolic compounds (70.2% flavonoids, 18.3% phenolic acids, 8.4% other polyphenols, 2.3% lignans and 0.8% stilbenes) were identified, with 103 phenolic compounds reported for the first time in kombuchas. A greater diversity and abundance of phenolic compounds was detected in black tea kombucha, which resulted in a higher antioxidant capacity. However, the green tea kombucha was the only one that presented antibacterial activity against all the bacteria tested and an increased antiproliferative activity against the cancer cell lines, which was attributed to the presence of catechins among the most abundant phenolic compounds and verbascoside as an exclusive compound. Thus, the type of tea used in the kombucha production interferes in its bioactive composition and properties.",
		"container-title": "Food Research International",
		"DOI": "10.1016/j.foodres.2019.108782",
		"ISSN": "0963-9969",
		"journalAbbreviation": "Food Research International",
		"language": "en",
		"page": "108782",
		"source": "ScienceDirect",
		"title": "Kombuchas from green and black teas have different phenolic profile, which impacts their antioxidant capacities, antibacterial and antiproliferative activities",
		"URL": "https://www.sciencedirect.com/science/article/pii/S0963996919306684",
		"volume": "128",
		"author": [
			{
				"family": "Cardoso",
				"given": "Rodrigo Rezende"
			},
			{
				"family": "Neto",
				"given": "Rafaela Oliveira"
			},
			{
				"family": "Santos D'Almeida",
				"given": "Carolina Thomaz",
				"non-dropping-particle": "dos"
			},
			{
				"family": "Nascimento",
				"given": "Talita Pimenta",
				"non-dropping-particle": "do"
			},
			{
				"family": "Pressete",
				"given": "Carolina Girotto"
			},
			{
				"family": "Azevedo",
				"given": "Luciana"
			},
			{
				"family": "Martino",
				"given": "Hercia Stampini Duarte"
			},
			{
				"family": "Cameron",
				"given": "Luiz Claudio"
			},
			{
				"family": "Ferreira",
				"given": "Mariana Simões Larraz"
			},
			{
				"family": "Barros",
				"given": "Frederico Augusto Ribeiro",
				"dropping-particle": "de"
			}
		],
		"accessed": {
			"date-parts": [
				[
					"2022",
					5,
					17
				]
			]
		},
		"issued": {
			"date-parts": [
				[
					"2020",
					2,
					1
				]
			]
		}
	},
	{
		"id": "priyadharshiniMachineLearningPrediction2022",
		"type": "article-journal",
		"abstract": "The commercialization of by-product of Kombucha SCOBY (Symbiotic consortium of bacteria and yeast) could be the sustainable way of transforming waste into value-added products. This study aims at developing a robust machine learning model for the prediction of SCOBY yield. Concentrations of tea, sucrose, SCOBY, inoculum, pH, temperature, and fermentation time were the input parameters considered. The robustness of the models was studied using correlation coefficient and root mean square error. Among the algorithms studied, XGB (eXtreme Gradient Boosting) was the most resilient model with high accuracy. By hyperparameter tuning and k-fold cross-validations, the model performance was improved to attain an R2 value of 0.9048. The relationship between variables was depicted as Pair plot and Pearson correlation matrix. Fermentation temperature was the most influential parameter affecting SCOBY yield. Shapley additive explanations dependence plots and summary plot provided insights on the combined effects of input parameters on the SCOBY yield. © 2022 Elsevier Ltd",
		"container-title": "Bioresource Technology Reports",
		"DOI": "10.1016/j.biteb.2022.101027",
		"title": "Machine learning prediction of SCOBY cellulose yield from Kombucha tea fermentation",
		"URL": "https://www.scopus.com/inward/record.uri?eid=2-s2.0-85127369998&doi=10.1016%2fj.biteb.2022.101027&partnerID=40&md5=ec995113f94081c109bc8585db44b3a3",
		"volume": "18",
		"author": [
			{
				"family": "Priyadharshini",
				"given": "T."
			},
			{
				"family": "Nageshwari",
				"given": "K."
			},
			{
				"family": "Vimaladhasan",
				"given": "S."
			},
			{
				"family": "Parag Prakash",
				"given": "S."
			},
			{
				"family": "Balasubramanian",
				"given": "P."
			}
		],
		"issued": {
			"date-parts": [
				[
					"2022"
				]
			]
		}
	},
	{
		"id": "pathyMalachiteGreenRemoval2022",
		"type": "article-journal",
		"abstract": "Malachite green pollution in the aquatic environment results in health hazards such as cancer and respiratory problems. Effective methods need to be developed to remove malachite green from wastewater. Here, we studied the adsorption of malachite green by a low-cost microalgal biochar (AB) and a novel microalgal-kombucha-SCOBY composite biochar (AKB). The maximum adsorption capacity of AB and AKB for malachite green was 166 and 500 mg g−1, respectively. The kinetics and isotherm models indicate that chemisorption and diffusion were the dominant mechanisms driving the adsorption reactions. The partially remediated water from the adsorption experiment was phycoremediated to remove the remaining pollutants and to utilize the water for algal growth. Integration of phycoremediation with adsorption achieved removal efficiencies of >98% for both biochars. Moreover, microalgal growth was increased by 1.33 and 1.55 times in the AB and AKB remediated water, respectively, than in freshwater.",
		"container-title": "Surfaces and Interfaces",
		"DOI": "10.1016/j.surfin.2022.101880",
		"ISSN": "2468-0230",
		"journalAbbreviation": "Surfaces and Interfaces",
		"language": "en",
		"page": "101880",
		"source": "ScienceDirect",
		"title": "Malachite green removal using algal biochar and its composites with kombucha SCOBY: An integrated biosorption and phycoremediation approach",
		"title-short": "Malachite green removal using algal biochar and its composites with kombucha SCOBY",
		"URL": "https://www.sciencedirect.com/science/article/pii/S2468023022001614",
		"volume": "30",
		"author": [
			{
				"family": "Pathy",
				"given": "Abhijeet"
			},
			{
				"family": "Krishnamoorthy",
				"given": "Nageshwari"
			},
			{
				"family": "Chang",
				"given": "Scott X."
			},
			{
				"family": "Paramasivan",
				"given": "Balasubramanian"
			}
		],
		"accessed": {
			"date-parts": [
				[
					"2022",
					7,
					8
				]
			]
		},
		"issued": {
			"date-parts": [
				[
					"2022",
					6,
					1
				]
			]
		}
	},
	{
		"id": "fosterMeetGTDave2015",
		"type": "webpage",
		"abstract": "Yes, kombucha. The fermented probiotic beverage that GT Dave turned into a $600 million category--one that he still dominates. If only things would stay so simple.",
		"container-title": "Inc.com",
		"title": "Meet GT Dave, the King of Kombucha",
		"URL": "https://www.inc.com/magazine/201503/tom-foster/the-king-of-kombucha.html",
		"author": [
			{
				"family": "Foster",
				"given": "Tom"
			}
		],
		"accessed": {
			"date-parts": [
				[
					"2018",
					12,
					14
				]
			]
		},
		"issued": {
			"date-parts": [
				[
					"2015",
					2,
					18
				]
			]
		}
	},
	{
		"id": "pradhanMetagenomicPhysicochemicalAnalysis2022",
		"type": "article-journal",
		"abstract": "Kombucha beverage produced through fermentation of sugared tea using bacteria and yeast has gained attention for its beneficial health benefits. However, the cost linked to the raw materials often increases the upstream process expenses, thereby the overall operating expenditures. Thus, there is a need to explore alternative waste and cost-effective raw materials for Kombucha fermentation. The present study, compared the physico-chemical and microbial growth pattern of Kombucha beverage production using tea waste from the tea processing industries with that of the green/black tea, reporting similar trends irrespective of its type. Further, the amplicon sequencing of 16S rRNA showed dominant presence of Komagataeibacter rhaeticus and high throughput sequencing of ITS1 confirmed the presence of yeast species similar to Brettanomyces bruxellensis in the tea waste based Kombucha beverage. Appreciable amount of carbohydrates (8.5/100 g) and energy (34 kcal/100 g) with appropriate organoleptic properties favourable for human consumption were also observed during the nutritional content and qualitative property assessment. The overall study showed a broad taxonomic and functional diversity existing during Kombucha fermentation process with tea waste to maintain a sustained eco-system to facilitate cost-effective beverage production with desired properties for safe consumption. © 2022, Association of Food Scientists & Technologists (India).",
		"container-title": "Journal of Food Science and Technology",
		"DOI": "10.1007/s13197-022-05476-3",
		"title": "Metagenomic and physicochemical analysis of Kombucha beverage produced from tea waste",
		"URL": "https://www.scopus.com/inward/record.uri?eid=2-s2.0-85133085385&doi=10.1007%2fs13197-022-05476-3&partnerID=40&md5=4315dc2f2917a07d41de183ac563f0b3",
		"author": [
			{
				"family": "Pradhan",
				"given": "S."
			},
			{
				"family": "Prabhakar",
				"given": "M.R."
			},
			{
				"family": "Karthika Parvathy",
				"given": "K.R."
			},
			{
				"family": "Dey",
				"given": "B."
			},
			{
				"family": "Jayaraman",
				"given": "S."
			},
			{
				"family": "Behera",
				"given": "B."
			},
			{
				"family": "Paramasivan",
				"given": "B."
			}
		],
		"issued": {
			"date-parts": [
				[
					"2022"
				]
			]
		}
	},
	{
		"id": "harrisonMicrobialCompositionSCOBY2021",
		"type": "article-journal",
		"abstract": "Kombucha fermentation is initiated by transferring a solid-phase cellulosic pellicle into sweetened tea and allowing the microbes that it contains to initiate the fermentation. This pellicle, commonly referred to as a symbiotic culture of bacteria and yeast (SCOBY), floats to the surface of the fermenting tea and represents an interphase environment, where embedded microbes gain access to oxygen as well as nutrients in the tea. To date, various yeast and bacteria have been reported to exist within the SCOBY, with little consensus as to which species are essential and which are incidental to Kombucha production. In this study, we used high-throughput sequencing approaches to evaluate spatial homogeneity within a single commercial SCOBY and taxonomic diversity across a large number (n = 103) of SCOBY used by Kombucha brewers, predominantly in North America. Our results show that the most prevalent and abundant SCOBY taxa were the yeast genus Brettanomyces and the bacterial genus Komagataeibacter, through careful sampling of upper and lower SCOBY layers. This sampling procedure is critical to avoid over-representation of lactic acid bacteria. K-means clustering was used on metabarcoding data of all 103 SCOBY, delineating four SCOBY archetypes based upon differences in their microbial community structures. Fungal genera Zygosaccharomyces, Lachancea and Starmerella were identified as the major compensatory taxa for SCOBY with lower relative abundance of Brettanomyces. Interestingly, while Lactobacillacae was the major compensatory taxa where Komagataeibacter abundance was lower, phylogenic heat-tree analysis infers a possible antagonistic relationship between Starmerella and the acetic acid bacterium. Our results provide the basis for further investigation of how SCOBY archetype affects Kombucha fermentation, and fundamental studies of microbial community assembly in an interphase environment.",
		"container-title": "Microorganisms",
		"DOI": "10.3390/microorganisms9051060",
		"ISSN": "2076-2607",
		"issue": "5",
		"journalAbbreviation": "Microorganisms",
		"language": "en",
		"page": "1060",
		"source": "DOI.org (Crossref)",
		"title": "Microbial Composition of SCOBY Starter Cultures Used by Commercial Kombucha Brewers in North America",
		"URL": "https://www.mdpi.com/2076-2607/9/5/1060",
		"volume": "9",
		"author": [
			{
				"family": "Harrison",
				"given": "Keisha"
			},
			{
				"family": "Curtin",
				"given": "Chris"
			}
		],
		"accessed": {
			"date-parts": [
				[
					"2022",
					3,
					31
				]
			]
		},
		"issued": {
			"date-parts": [
				[
					"2021",
					5,
					14
				]
			]
		}
	},
	{
		"id": "tranMicrobialDynamicsYeasts2020",
		"type": "article-journal",
		"abstract": "Kombucha is a traditional low-alcoholic beverage made from sugared tea and transformed by a complex microbial consortium including yeasts and acetic acid bacteria (AAB). To study the microbial interactions and their impact on the chemical composition of the beverage, an experimental design with nine couples associating one yeast strain and one AAB strain isolated from original black tea kombucha was set up. Three yeast strains belonging to the genera Brettanomyces, Hanseniaspora, and Saccharomyces and three strains of Acetobacter and Komagataeibacter species were chosen. Monocultures in sugared tea were analyzed to determine their individual microbial behaviors. Then, cultivation of the original kombucha consortium and cocultures in sugared tea were compared to determine the interactive microbial effects during successive phases in open and closed incubation conditions. The results highlight the main impact of yeast metabolism on the product’s chemical composition and the secondary impact of bacterial species on the composition in organic acids. The uncovered microbial interactions can be explained by different strategies for the utilization of sucrose. Yeasts and AAB unable to perform efficient sucrose hydrolysis rely on yeasts with high invertase activity to access released monosaccharides. Moreover, the presence of AAB rerouted the metabolism of Saccharomyces cerevisiae towards higher invertase and fermentative activities.",
		"container-title": "Foods",
		"DOI": "10.3390/foods9070963",
		"ISSN": "2304-8158",
		"issue": "7",
		"journalAbbreviation": "Foods",
		"language": "en",
		"page": "963",
		"source": "DOI.org (Crossref)",
		"title": "Microbial Dynamics between Yeasts and Acetic Acid Bacteria in Kombucha: Impacts on the Chemical Composition of the Beverage",
		"title-short": "Microbial Dynamics between Yeasts and Acetic Acid Bacteria in Kombucha",
		"URL": "https://www.mdpi.com/2304-8158/9/7/963",
		"volume": "9",
		"author": [
			{
				"family": "Tran",
				"given": "Thierry"
			},
			{
				"family": "Grandvalet",
				"given": "Cosette"
			},
			{
				"family": "Verdier",
				"given": "François"
			},
			{
				"family": "Martin",
				"given": "Antoine"
			},
			{
				"family": "Alexandre",
				"given": "Hervé"
			},
			{
				"family": "Tourdot-Maréchal",
				"given": "Raphaëlle"
			}
		],
		"accessed": {
			"date-parts": [
				[
					"2021",
					12,
					19
				]
			]
		},
		"issued": {
			"date-parts": [
				[
					"2020",
					7,
					21
				]
			]
		}
	},
	{
		"id": "weihuaProductionBacterialCellulose2022",
		"type": "article-journal",
		"abstract": "The industrialization and application of bacterial cellulose (BC) are restricted by high production cost and low productivity. In this paper, enzymatic hydrolysate of kitchen waste (KWH) was used as an alternative low-cost source to produce BC, aiming to facilitate its economic feasibility of industrial production. When KWH containing 13.11% total sugar and 1.27% total protein was used as medium of kombucha, BC yield was rapidly increased to 6.05 ± 0.17 g L−1 at 7 days of fermentation. As the extra nutrients, adding 5% glucose and 0.5% ammonium sulfate would significantly decrease the BC yield, while 0.5% peptone could promote the production of BC. Furthermore, the optimal KWH medium was determined through the Box-Behnken design as diluting KWH with distilled water at ratio of 1:0.8, adding 0.6% peptone, and adjusting initial pH to 5.5. The BC yield of 7.21 ± 0.25 g L−1 was obtained when kombucha was cultivated using this medium at 28 °C for 7 days, which was higher than many reported BC yield also taking organic waste as alternative source. Property characterization indicated that the obtained BC film had typical microfiber network; its Young’s modulus and tensile strength values were 3314.7 ± 193.5 MPa and 106.9 ± 25.6 MPa, respectively, and the water holding capacity value was 98.8%. In conclusion, this paper realized the high efficient conversion of kitchen waste to high-performance BC film, which will provide a technical reference for decreasing the producing cost of BC and a strategy for realizing the green and high-value utilization of KW. © 2022, The Author(s), under exclusive licence to Springer-Verlag GmbH Germany, part of Springer Nature.",
		"container-title": "Biomass Conversion and Biorefinery",
		"DOI": "10.1007/s13399-022-02903-5",
		"title": "Production of bacterial cellulose from enzymatic hydrolysate of kitchen waste by fermentation with kombucha",
		"URL": "https://www.scopus.com/inward/record.uri?eid=2-s2.0-85132692325&doi=10.1007%2fs13399-022-02903-5&partnerID=40&md5=a3af0248415d47e3a810b0cf3828eb16",
		"author": [
			{
				"family": "Weihua",
				"given": "Q."
			},
			{
				"family": "Hong",
				"given": "R."
			},
			{
				"family": "Qianhui",
				"given": "W."
			}
		],
		"issued": {
			"date-parts": [
				[
					"2022"
				]
			]
		}
	},
	{
		"id": "RecipeConfusionKombucha2017",
		"type": "post-weblog",
		"abstract": "As the industry continues to mature, the manner in which individual brands choose to approach the issue of alcohol and sugar content in kombucha will likely play a significant role in determining the health of the category going forward.",
		"container-title": "BevNET.com",
		"language": "en-US",
		"title": "Recipe for Confusion: Kombucha Struggles With Ingredient Controversies",
		"title-short": "Recipe for Confusion",
		"URL": "https://www.bevnet.com/news/2017/recipe-confusion-kombucha-struggles-ingredient-controversies",
		"accessed": {
			"date-parts": [
				[
					"2018",
					12,
					14
				]
			]
		},
		"issued": {
			"date-parts": [
				[
					"2017",
					6,
					15
				]
			]
		}
	},
	{
		"id": "nguyenScreeningOptimalRatio2015",
		"type": "article-journal",
		"abstract": "Glucuronic acid-a human detoxifying drug can be found in traditional kombucha which is a sweetened-black tea fermented by symbiotic microflora between yeast and acetic acid bacteria embedded within a microbial cellulose membrane. The main purpose of the study is to obtain the new designed symbiosis from the isolated yeasts and bacterial strains which can produce the high-level glucuronic acid kombucha and avoid unexpected microbial contaminants. The isolation, selection and identification showed the best initial combination ratio between Dekkera bruxellensis KN89 and Gluconacetobacter intermedius KN89 is 4Y (yeast):6A (acetic acid -bacteria) in number of living cell per milliliter which produced 175.8 mg L−1 glucuronic acid in 7-day fermentation (P < 0.05). This study also provides a basic understanding about fermentation kinetics of this symbiosis in order to control and enhance the final product at the critical time point (after 54 hrs of process). The findings of this study are practically relevant in producing a safe and glucuronic acid enriched kombucha.",
		"container-title": "LWT - Food Science and Technology",
		"DOI": "10.1016/j.lwt.2015.07.018",
		"ISSN": "0023-6438",
		"issue": "2",
		"journalAbbreviation": "LWT - Food Science and Technology",
		"language": "en",
		"page": "1149-1155",
		"source": "ScienceDirect",
		"title": "Screening the optimal ratio of symbiosis between isolated yeast and acetic acid bacteria strain from traditional kombucha for high-level production of glucuronic acid",
		"URL": "https://www.sciencedirect.com/science/article/pii/S0023643815300323",
		"volume": "64",
		"author": [
			{
				"family": "Nguyen",
				"given": "Nguyen Khoi"
			},
			{
				"family": "Nguyen",
				"given": "Phuong Bang"
			},
			{
				"family": "Nguyen",
				"given": "Huong Thuy"
			},
			{
				"family": "Le",
				"given": "Phu Hong"
			}
		],
		"accessed": {
			"date-parts": [
				[
					"2022",
					5,
					17
				]
			]
		},
		"issued": {
			"date-parts": [
				[
					"2015",
					12,
					1
				]
			]
		}
	},
	{
		"id": "beheraTechnoeconomicFeasibilityAssessment2022",
		"type": "article-journal",
		"abstract": "Bacterial cellulose produced during Kombucha fermentation has recently received lots of attention owing to its desirable mechanical and physicochemical properties and is exploited for different food, textiles and environmental applications. However, lack of information on process feasibility often hinders large-scale manufacturing of Kombucha-based cellulose. Therefore, the current study assesses techno-economic feasibility of a 60-ton annual capacity Kombucha-based cellulose production facility using SuperPro designer. Economic feasibility analysis showed an estimation of 13.72 million US$ as total investment and 3.8 million US$ as operating costs with 89% expenses associated with facility dependent and labour costs. The process feasibility is revealed with a payback time of 4.23 years, 23.64% return on investment and 16.48% internal rate of return. Sensitivity analysis presented that increased volume of fermentation units and automating the process can significantly reduce input costs. Such research is necessary to aid policymakers in facilitating the commercialization of Kombucha-based cellulose at field scale.",
		"container-title": "Bioresource Technology",
		"DOI": "10.1016/j.biortech.2021.126659",
		"ISSN": "0960-8524",
		"journalAbbreviation": "Bioresource Technology",
		"language": "en",
		"page": "126659",
		"source": "ScienceDirect",
		"title": "Techno-economic feasibility assessment of bacterial cellulose biofilm production during the Kombucha fermentation process",
		"URL": "https://www.sciencedirect.com/science/article/pii/S0960852421020010",
		"volume": "346",
		"author": [
			{
				"family": "Behera",
				"given": "Bunushree"
			},
			{
				"family": "Laavanya",
				"given": "D."
			},
			{
				"family": "Balasubramanian",
				"given": "Paramasivan"
			}
		],
		"accessed": {
			"date-parts": [
				[
					"2022",
					7,
					8
				]
			]
		},
		"issued": {
			"date-parts": [
				[
					"2022",
					2,
					1
				]
			]
		}
	},
	{
		"id": "beheraTechnoeconomicFeasibilityAssessment2022a",
		"type": "article-journal",
		"abstract": "Bacterial cellulose produced during Kombucha fermentation has recently received lots of attention owing to its desirable mechanical and physicochemical properties and is exploited for different food, textiles and environmental applications. However, lack of information on process feasibility often hinders large-scale manufacturing of Kombucha-based cellulose. Therefore, the current study assesses techno-economic feasibility of a 60-ton annual capacity Kombucha-based cellulose production facility using SuperPro designer. Economic feasibility analysis showed an estimation of 13.72 million US$ as total investment and 3.8 million US$ as operating costs with 89% expenses associated with facility dependent and labour costs. The process feasibility is revealed with a payback time of 4.23 years, 23.64% return on investment and 16.48% internal rate of return. Sensitivity analysis presented that increased volume of fermentation units and automating the process can significantly reduce input costs. Such research is necessary to aid policymakers in facilitating the commercialization of Kombucha-based cellulose at field scale.",
		"container-title": "Bioresource Technology",
		"DOI": "10.1016/j.biortech.2021.126659",
		"ISSN": "0960-8524",
		"journalAbbreviation": "Bioresource Technology",
		"language": "en",
		"page": "126659",
		"source": "ScienceDirect",
		"title": "Techno-economic feasibility assessment of bacterial cellulose biofilm production during the Kombucha fermentation process",
		"URL": "https://www.sciencedirect.com/science/article/pii/S0960852421020010",
		"volume": "346",
		"author": [
			{
				"family": "Behera",
				"given": "Bunushree"
			},
			{
				"family": "Laavanya",
				"given": "D."
			},
			{
				"family": "Balasubramanian",
				"given": "Paramasivan"
			}
		],
		"accessed": {
			"date-parts": [
				[
					"2022",
					7,
					8
				]
			]
		},
		"issued": {
			"date-parts": [
				[
					"2022",
					2,
					1
				]
			]
		}
	},
	{
		"id": "soaresTechnologicalAspectsKombucha2021",
		"type": "article-journal",
		"container-title": "Trends in Food Science & Technology",
		"DOI": "10.1016/j.tifs.2021.02.017",
		"ISSN": "09242244",
		"journalAbbreviation": "Trends in Food Science & Technology",
		"language": "en",
		"page": "539-550",
		"source": "DOI.org (Crossref)",
		"title": "Technological aspects of kombucha, its applications and the symbiotic culture (SCOBY), and extraction of compounds of interest: A literature review",
		"title-short": "Technological aspects of kombucha, its applications and the symbiotic culture (SCOBY), and extraction of compounds of interest",
		"URL": "https://linkinghub.elsevier.com/retrieve/pii/S0924224421001187",
		"volume": "110",
		"author": [
			{
				"family": "Soares",
				"given": "Marcelo Gomes"
			},
			{
				"family": "Lima",
				"given": "Marieli",
				"non-dropping-particle": "de"
			},
			{
				"family": "Reolon Schmidt",
				"given": "Vivian Consuelo"
			}
		],
		"accessed": {
			"date-parts": [
				[
					"2022",
					3,
					31
				]
			]
		},
		"issued": {
			"date-parts": [
				[
					"2021",
					4
				]
			]
		}
	},
	{
		"id": "QueerHistoryKombucha0400",
		"type": "webpage",
		"abstract": "There was a time when kombucha was thought to cure everything—even AIDS. Then, the bubble burst.",
		"container-title": "Food52",
		"language": "en-us",
		"title": "The Queer History of Kombucha",
		"URL": "https://food52.com/blog/20366-queer-history-of-kombucha",
		"accessed": {
			"date-parts": [
				[
					"2018",
					12,
					14
				]
			]
		},
		"issued": {
			"date-parts": [
				[
					"0400"
				]
			],
			"season": "30:00"
		}
	},
	{
		"id": "SecretLivesKombucha2019",
		"type": "webpage",
		"container-title": "Distributed Design Market Platform",
		"language": "en-US",
		"title": "The Secret Lives of Kombucha",
		"URL": "https://distributeddesign.eu/the-secret-lives-of-kombucha/",
		"accessed": {
			"date-parts": [
				[
					"2021",
					1,
					30
				]
			]
		},
		"issued": {
			"date-parts": [
				[
					"2019",
					12,
					3
				]
			]
		}
	},
	{
		"id": "santanadecarvalhoSpaceExposedKombuchaMicrobial2022",
		"type": "article-journal",
		"abstract": "Komagataeibacter is the dominant taxon and cellulose-producing bacteria in the Kombucha Microbial Community (KMC). This is the first study to isolate the K. oboediens genome from a reactivated space-exposed KMC sample and comprehensively characterize it. The space-exposed genome was compared with the Earth-based reference genome to understand the genome stability of K. oboediens under extraterrestrial conditions during a long time. Our results suggest that the genomes of K. oboediens IMBG180 (ground sample) and K. oboediens IMBG185 (space-exposed) are remarkably similar in topology, genomic islands, transposases, prion-like proteins, and number of plasmids and CRISPR-Cas cassettes. Nonetheless, there was a difference in the length of plasmids and the location of cas genes. A small difference was observed in the number of protein coding genes. Despite these differences, they do not affect any genetic metabolic profile of the cellulose synthesis, nitrogen-fixation, hopanoid lipids biosynthesis, and stress-related pathways. Minor changes are only observed in central carbohydrate and energy metabolism pathways gene numbers or sequence completeness. Altogether, these findings suggest that K. oboediens maintains its genome stability and functionality in KMC exposed to the space environment most probably due to the protective role of the KMC biofilm. Furthermore, due to its unaffected metabolic pathways, this bacterial species may also retain some promising potential for space applications.",
		"container-title": "Frontiers in Microbiology",
		"ISSN": "1664-302X",
		"source": "Frontiers",
		"title": "The Space-Exposed Kombucha Microbial Community Member Komagataeibacter oboediens Showed Only Minor Changes in Its Genome After Reactivation on Earth",
		"URL": "https://www.frontiersin.org/articles/10.3389/fmicb.2022.782175",
		"volume": "13",
		"author": [
			{
				"family": "Santana de Carvalho",
				"given": "Daniel"
			},
			{
				"family": "Trovatti Uetanabaro",
				"given": "Ana Paula"
			},
			{
				"family": "Kato",
				"given": "Rodrigo Bentes"
			},
			{
				"family": "Aburjaile",
				"given": "Flávia Figueira"
			},
			{
				"family": "Jaiswal",
				"given": "Arun Kumar"
			},
			{
				"family": "Profeta",
				"given": "Rodrigo"
			},
			{
				"family": "De Oliveira Carvalho",
				"given": "Rodrigo Dias"
			},
			{
				"family": "Tiwar",
				"given": "Sandeep"
			},
			{
				"family": "Cybelle Pinto Gomide",
				"given": "Anne"
			},
			{
				"family": "Almeida Costa",
				"given": "Eduardo"
			},
			{
				"family": "Kukharenko",
				"given": "Olga"
			},
			{
				"family": "Orlovska",
				"given": "Iryna"
			},
			{
				"family": "Podolich",
				"given": "Olga"
			},
			{
				"family": "Reva",
				"given": "Oleg"
			},
			{
				"family": "Ramos",
				"given": "Pablo Ivan P."
			},
			{
				"family": "De Carvalho Azevedo",
				"given": "Vasco Ariston"
			},
			{
				"family": "Brenig",
				"given": "Bertram"
			},
			{
				"family": "Andrade",
				"given": "Bruno Silva"
			},
			{
				"family": "Vera",
				"given": "Jean-Pierre P.",
				"non-dropping-particle": "de"
			},
			{
				"family": "Kozyrovska",
				"given": "Natalia O."
			},
			{
				"family": "Barh",
				"given": "Debmalya"
			},
			{
				"family": "Góes-Neto",
				"given": "Aristóteles"
			}
		],
		"accessed": {
			"date-parts": [
				[
					"2022",
					7,
					13
				]
			]
		},
		"issued": {
			"date-parts": [
				[
					"2022"
				]
			]
		}
	},
	{
		"id": "deutschTheyEatThat2012",
		"type": "book",
		"event-place": "Santa Barbara, UNITED STATES",
		"ISBN": "978-0-313-38059-4",
		"publisher": "ABC-CLIO, LLC",
		"publisher-place": "Santa Barbara, UNITED STATES",
		"source": "ProQuest Ebook Central",
		"title": "They Eat That?: A Cultural Encyclopedia of Weird and Exotic Food from Around the World",
		"title-short": "They Eat That?",
		"URL": "http://ebookcentral.proquest.com/lib/lewisclark/detail.action?docID=831974",
		"author": [
			{
				"family": "Deutsch",
				"given": "Jonathan"
			},
			{
				"family": "Murakhver",
				"given": "Natalya"
			},
			{
				"family": "Murakhver",
				"given": "Natalya"
			}
		],
		"accessed": {
			"date-parts": [
				[
					"2018",
					12,
					14
				]
			]
		},
		"issued": {
			"date-parts": [
				[
					"2012"
				]
			]
		}
	},
	{
		"id": "villarreal-sotoUnderstandingKombuchaTea2018",
		"type": "article-journal",
		"abstract": "Kombucha is a beverage of probable Manchurian origins obtained from fermented tea by a microbial consortium composed of several bacteria and yeasts. This mixed consortium forms a powerful symbiosis capable of inhibiting the growth of potentially contaminating bacteria. The fermentation process also leads to the formation of a polymeric cellulose pellicle due to the activity of certain strains of Acetobacter sp. The tea fermentation process by the microbial consortium was able to show an increase in certain biological activities which have been already studied; however, little information is available on the characterization of its active components and their evolution during fermentation. Studies have also reported that the use of infusions from other plants may be a promising alternative.\nPRACTICAL APPLICATION: Kombucha is a traditional fermented tea whose consumption has increased in the recent years due to its multiple functional properties such as anti-inflammatory potential and antioxidant activity. The microbiological composition of this beverage is quite complex and still more research is needed in order to fully understand its behavior. This study comprises the chemical and microbiological composition of the tea and the main factors that may affect its production.",
		"container-title": "Journal of Food Science",
		"DOI": "10.1111/1750-3841.14068",
		"ISSN": "1750-3841",
		"issue": "3",
		"journalAbbreviation": "J Food Sci",
		"language": "eng",
		"note": "PMID: 29508944",
		"page": "580-588",
		"source": "PubMed",
		"title": "Understanding Kombucha Tea Fermentation: A Review",
		"title-short": "Understanding Kombucha Tea Fermentation",
		"volume": "83",
		"author": [
			{
				"family": "Villarreal-Soto",
				"given": "Silvia Alejandra"
			},
			{
				"family": "Beaufort",
				"given": "Sandra"
			},
			{
				"family": "Bouajila",
				"given": "Jalloul"
			},
			{
				"family": "Souchard",
				"given": "Jean-Pierre"
			},
			{
				"family": "Taillandier",
				"given": "Patricia"
			}
		],
		"issued": {
			"date-parts": [
				[
					"2018",
					3
				]
			]
		}
	}
]